^C:\GIT\THIRDPARTY\ODE-0.12\ODE\SRC\JOINTS\AMOTOR.CPP
/c /I..\..\include /I..\..\ode\src /I..\..\ode\src\joints /I..\..\OPCODE /I..\..\GIMPACT\include /I..\..\ou\include /I..\..\libccd\src /Zi /nologo /W3 /WX- /O2 /Ob2 /Oi /Ot /Oy /GL /D dSINGLE /D CCD_SINGLE /D WIN32 /D _CRT_SECURE_NO_DEPRECATE /D ODE_LIB /D _MBCS /GF /Gm- /EHsc /MD /GS /Gy /Qpar /arch:AVX /fp:fast /Zc:wchar_t /Zc:forScope /Fo"OBJ\RELEASESINGLELIB\\" /Fd"..\..\LIB\RELEASESINGLELIB\ODE.PDB" /Gd /TP /analyze- C:\GIT\THIRDPARTY\ODE-0.12\ODE\SRC\JOINTS\AMOTOR.CPP
^C:\GIT\THIRDPARTY\ODE-0.12\ODE\SRC\JOINTS\BALL.CPP
/c /I..\..\include /I..\..\ode\src /I..\..\ode\src\joints /I..\..\OPCODE /I..\..\GIMPACT\include /I..\..\ou\include /I..\..\libccd\src /Zi /nologo /W3 /WX- /O2 /Ob2 /Oi /Ot /Oy /GL /D dSINGLE /D CCD_SINGLE /D WIN32 /D _CRT_SECURE_NO_DEPRECATE /D ODE_LIB /D _MBCS /GF /Gm- /EHsc /MD /GS /Gy /Qpar /arch:AVX /fp:fast /Zc:wchar_t /Zc:forScope /Fo"OBJ\RELEASESINGLELIB\\" /Fd"..\..\LIB\RELEASESINGLELIB\ODE.PDB" /Gd /TP /analyze- C:\GIT\THIRDPARTY\ODE-0.12\ODE\SRC\JOINTS\BALL.CPP
^C:\GIT\THIRDPARTY\ODE-0.12\ODE\SRC\JOINTS\CONTACT.CPP
/c /I..\..\include /I..\..\ode\src /I..\..\ode\src\joints /I..\..\OPCODE /I..\..\GIMPACT\include /I..\..\ou\include /I..\..\libccd\src /Zi /nologo /W3 /WX- /O2 /Ob2 /Oi /Ot /Oy /GL /D dSINGLE /D CCD_SINGLE /D WIN32 /D _CRT_SECURE_NO_DEPRECATE /D ODE_LIB /D _MBCS /GF /Gm- /EHsc /MD /GS /Gy /Qpar /arch:AVX /fp:fast /Zc:wchar_t /Zc:forScope /Fo"OBJ\RELEASESINGLELIB\\" /Fd"..\..\LIB\RELEASESINGLELIB\ODE.PDB" /Gd /TP /analyze- C:\GIT\THIRDPARTY\ODE-0.12\ODE\SRC\JOINTS\CONTACT.CPP
^C:\GIT\THIRDPARTY\ODE-0.12\ODE\SRC\JOINTS\FIXED.CPP
/c /I..\..\include /I..\..\ode\src /I..\..\ode\src\joints /I..\..\OPCODE /I..\..\GIMPACT\include /I..\..\ou\include /I..\..\libccd\src /Zi /nologo /W3 /WX- /O2 /Ob2 /Oi /Ot /Oy /GL /D dSINGLE /D CCD_SINGLE /D WIN32 /D _CRT_SECURE_NO_DEPRECATE /D ODE_LIB /D _MBCS /GF /Gm- /EHsc /MD /GS /Gy /Qpar /arch:AVX /fp:fast /Zc:wchar_t /Zc:forScope /Fo"OBJ\RELEASESINGLELIB\\" /Fd"..\..\LIB\RELEASESINGLELIB\ODE.PDB" /Gd /TP /analyze- C:\GIT\THIRDPARTY\ODE-0.12\ODE\SRC\JOINTS\FIXED.CPP
^C:\GIT\THIRDPARTY\ODE-0.12\ODE\SRC\JOINTS\HINGE.CPP
/c /I..\..\include /I..\..\ode\src /I..\..\ode\src\joints /I..\..\OPCODE /I..\..\GIMPACT\include /I..\..\ou\include /I..\..\libccd\src /Zi /nologo /W3 /WX- /O2 /Ob2 /Oi /Ot /Oy /GL /D dSINGLE /D CCD_SINGLE /D WIN32 /D _CRT_SECURE_NO_DEPRECATE /D ODE_LIB /D _MBCS /GF /Gm- /EHsc /MD /GS /Gy /Qpar /arch:AVX /fp:fast /Zc:wchar_t /Zc:forScope /Fo"OBJ\RELEASESINGLELIB\\" /Fd"..\..\LIB\RELEASESINGLELIB\ODE.PDB" /Gd /TP /analyze- C:\GIT\THIRDPARTY\ODE-0.12\ODE\SRC\JOINTS\HINGE.CPP
^C:\GIT\THIRDPARTY\ODE-0.12\ODE\SRC\JOINTS\HINGE2.CPP
/c /I..\..\include /I..\..\ode\src /I..\..\ode\src\joints /I..\..\OPCODE /I..\..\GIMPACT\include /I..\..\ou\include /I..\..\libccd\src /Zi /nologo /W3 /WX- /O2 /Ob2 /Oi /Ot /Oy /GL /D dSINGLE /D CCD_SINGLE /D WIN32 /D _CRT_SECURE_NO_DEPRECATE /D ODE_LIB /D _MBCS /GF /Gm- /EHsc /MD /GS /Gy /Qpar /arch:AVX /fp:fast /Zc:wchar_t /Zc:forScope /Fo"OBJ\RELEASESINGLELIB\\" /Fd"..\..\LIB\RELEASESINGLELIB\ODE.PDB" /Gd /TP /analyze- C:\GIT\THIRDPARTY\ODE-0.12\ODE\SRC\JOINTS\HINGE2.CPP
^C:\GIT\THIRDPARTY\ODE-0.12\ODE\SRC\JOINTS\JOINT.CPP
/c /I..\..\include /I..\..\ode\src /I..\..\ode\src\joints /I..\..\OPCODE /I..\..\GIMPACT\include /I..\..\ou\include /I..\..\libccd\src /Zi /nologo /W3 /WX- /O2 /Ob2 /Oi /Ot /Oy /GL /D dSINGLE /D CCD_SINGLE /D WIN32 /D _CRT_SECURE_NO_DEPRECATE /D ODE_LIB /D _MBCS /GF /Gm- /EHsc /MD /GS /Gy /Qpar /arch:AVX /fp:fast /Zc:wchar_t /Zc:forScope /Fo"OBJ\RELEASESINGLELIB\\" /Fd"..\..\LIB\RELEASESINGLELIB\ODE.PDB" /Gd /TP /analyze- C:\GIT\THIRDPARTY\ODE-0.12\ODE\SRC\JOINTS\JOINT.CPP
^C:\GIT\THIRDPARTY\ODE-0.12\ODE\SRC\JOINTS\LMOTOR.CPP
/c /I..\..\include /I..\..\ode\src /I..\..\ode\src\joints /I..\..\OPCODE /I..\..\GIMPACT\include /I..\..\ou\include /I..\..\libccd\src /Zi /nologo /W3 /WX- /O2 /Ob2 /Oi /Ot /Oy /GL /D dSINGLE /D CCD_SINGLE /D WIN32 /D _CRT_SECURE_NO_DEPRECATE /D ODE_LIB /D _MBCS /GF /Gm- /EHsc /MD /GS /Gy /Qpar /arch:AVX /fp:fast /Zc:wchar_t /Zc:forScope /Fo"OBJ\RELEASESINGLELIB\\" /Fd"..\..\LIB\RELEASESINGLELIB\ODE.PDB" /Gd /TP /analyze- C:\GIT\THIRDPARTY\ODE-0.12\ODE\SRC\JOINTS\LMOTOR.CPP
^C:\GIT\THIRDPARTY\ODE-0.12\ODE\SRC\JOINTS\NULL.CPP
/c /I..\..\include /I..\..\ode\src /I..\..\ode\src\joints /I..\..\OPCODE /I..\..\GIMPACT\include /I..\..\ou\include /I..\..\libccd\src /Zi /nologo /W3 /WX- /O2 /Ob2 /Oi /Ot /Oy /GL /D dSINGLE /D CCD_SINGLE /D WIN32 /D _CRT_SECURE_NO_DEPRECATE /D ODE_LIB /D _MBCS /GF /Gm- /EHsc /MD /GS /Gy /Qpar /arch:AVX /fp:fast /Zc:wchar_t /Zc:forScope /Fo"OBJ\RELEASESINGLELIB\\" /Fd"..\..\LIB\RELEASESINGLELIB\ODE.PDB" /Gd /TP /analyze- C:\GIT\THIRDPARTY\ODE-0.12\ODE\SRC\JOINTS\NULL.CPP
^C:\GIT\THIRDPARTY\ODE-0.12\ODE\SRC\JOINTS\PISTON.CPP
/c /I..\..\include /I..\..\ode\src /I..\..\ode\src\joints /I..\..\OPCODE /I..\..\GIMPACT\include /I..\..\ou\include /I..\..\libccd\src /Zi /nologo /W3 /WX- /O2 /Ob2 /Oi /Ot /Oy /GL /D dSINGLE /D CCD_SINGLE /D WIN32 /D _CRT_SECURE_NO_DEPRECATE /D ODE_LIB /D _MBCS /GF /Gm- /EHsc /MD /GS /Gy /Qpar /arch:AVX /fp:fast /Zc:wchar_t /Zc:forScope /Fo"OBJ\RELEASESINGLELIB\\" /Fd"..\..\LIB\RELEASESINGLELIB\ODE.PDB" /Gd /TP /analyze- C:\GIT\THIRDPARTY\ODE-0.12\ODE\SRC\JOINTS\PISTON.CPP
^C:\GIT\THIRDPARTY\ODE-0.12\ODE\SRC\JOINTS\PLANE2D.CPP
/c /I..\..\include /I..\..\ode\src /I..\..\ode\src\joints /I..\..\OPCODE /I..\..\GIMPACT\include /I..\..\ou\include /I..\..\libccd\src /Zi /nologo /W3 /WX- /O2 /Ob2 /Oi /Ot /Oy /GL /D dSINGLE /D CCD_SINGLE /D WIN32 /D _CRT_SECURE_NO_DEPRECATE /D ODE_LIB /D _MBCS /GF /Gm- /EHsc /MD /GS /Gy /Qpar /arch:AVX /fp:fast /Zc:wchar_t /Zc:forScope /Fo"OBJ\RELEASESINGLELIB\\" /Fd"..\..\LIB\RELEASESINGLELIB\ODE.PDB" /Gd /TP /analyze- C:\GIT\THIRDPARTY\ODE-0.12\ODE\SRC\JOINTS\PLANE2D.CPP
^C:\GIT\THIRDPARTY\ODE-0.12\ODE\SRC\JOINTS\PR.CPP
/c /I..\..\include /I..\..\ode\src /I..\..\ode\src\joints /I..\..\OPCODE /I..\..\GIMPACT\include /I..\..\ou\include /I..\..\libccd\src /Zi /nologo /W3 /WX- /O2 /Ob2 /Oi /Ot /Oy /GL /D dSINGLE /D CCD_SINGLE /D WIN32 /D _CRT_SECURE_NO_DEPRECATE /D ODE_LIB /D _MBCS /GF /Gm- /EHsc /MD /GS /Gy /Qpar /arch:AVX /fp:fast /Zc:wchar_t /Zc:forScope /Fo"OBJ\RELEASESINGLELIB\\" /Fd"..\..\LIB\RELEASESINGLELIB\ODE.PDB" /Gd /TP /analyze- C:\GIT\THIRDPARTY\ODE-0.12\ODE\SRC\JOINTS\PR.CPP
^C:\GIT\THIRDPARTY\ODE-0.12\ODE\SRC\JOINTS\PU.CPP
/c /I..\..\include /I..\..\ode\src /I..\..\ode\src\joints /I..\..\OPCODE /I..\..\GIMPACT\include /I..\..\ou\include /I..\..\libccd\src /Zi /nologo /W3 /WX- /O2 /Ob2 /Oi /Ot /Oy /GL /D dSINGLE /D CCD_SINGLE /D WIN32 /D _CRT_SECURE_NO_DEPRECATE /D ODE_LIB /D _MBCS /GF /Gm- /EHsc /MD /GS /Gy /Qpar /arch:AVX /fp:fast /Zc:wchar_t /Zc:forScope /Fo"OBJ\RELEASESINGLELIB\\" /Fd"..\..\LIB\RELEASESINGLELIB\ODE.PDB" /Gd /TP /analyze- C:\GIT\THIRDPARTY\ODE-0.12\ODE\SRC\JOINTS\PU.CPP
^C:\GIT\THIRDPARTY\ODE-0.12\ODE\SRC\JOINTS\SLIDER.CPP
/c /I..\..\include /I..\..\ode\src /I..\..\ode\src\joints /I..\..\OPCODE /I..\..\GIMPACT\include /I..\..\ou\include /I..\..\libccd\src /Zi /nologo /W3 /WX- /O2 /Ob2 /Oi /Ot /Oy /GL /D dSINGLE /D CCD_SINGLE /D WIN32 /D _CRT_SECURE_NO_DEPRECATE /D ODE_LIB /D _MBCS /GF /Gm- /EHsc /MD /GS /Gy /Qpar /arch:AVX /fp:fast /Zc:wchar_t /Zc:forScope /Fo"OBJ\RELEASESINGLELIB\\" /Fd"..\..\LIB\RELEASESINGLELIB\ODE.PDB" /Gd /TP /analyze- C:\GIT\THIRDPARTY\ODE-0.12\ODE\SRC\JOINTS\SLIDER.CPP
^C:\GIT\THIRDPARTY\ODE-0.12\ODE\SRC\JOINTS\UNIVERSAL.CPP
/c /I..\..\include /I..\..\ode\src /I..\..\ode\src\joints /I..\..\OPCODE /I..\..\GIMPACT\include /I..\..\ou\include /I..\..\libccd\src /Zi /nologo /W3 /WX- /O2 /Ob2 /Oi /Ot /Oy /GL /D dSINGLE /D CCD_SINGLE /D WIN32 /D _CRT_SECURE_NO_DEPRECATE /D ODE_LIB /D _MBCS /GF /Gm- /EHsc /MD /GS /Gy /Qpar /arch:AVX /fp:fast /Zc:wchar_t /Zc:forScope /Fo"OBJ\RELEASESINGLELIB\\" /Fd"..\..\LIB\RELEASESINGLELIB\ODE.PDB" /Gd /TP /analyze- C:\GIT\THIRDPARTY\ODE-0.12\ODE\SRC\JOINTS\UNIVERSAL.CPP
^C:\GIT\THIRDPARTY\ODE-0.12\ODE\SRC\ARRAY.CPP
/c /I..\..\include /I..\..\ode\src /I..\..\ode\src\joints /I..\..\OPCODE /I..\..\GIMPACT\include /I..\..\ou\include /I..\..\libccd\src /Zi /nologo /W3 /WX- /O2 /Ob2 /Oi /Ot /Oy /GL /D dSINGLE /D CCD_SINGLE /D WIN32 /D _CRT_SECURE_NO_DEPRECATE /D ODE_LIB /D _MBCS /GF /Gm- /EHsc /MD /GS /Gy /Qpar /arch:AVX /fp:fast /Zc:wchar_t /Zc:forScope /Fo"OBJ\RELEASESINGLELIB\\" /Fd"..\..\LIB\RELEASESINGLELIB\ODE.PDB" /Gd /TP /analyze- C:\GIT\THIRDPARTY\ODE-0.12\ODE\SRC\ARRAY.CPP
^C:\GIT\THIRDPARTY\ODE-0.12\ODE\SRC\BOX.CPP
/c /I..\..\include /I..\..\ode\src /I..\..\ode\src\joints /I..\..\OPCODE /I..\..\GIMPACT\include /I..\..\ou\include /I..\..\libccd\src /Zi /nologo /W3 /WX- /O2 /Ob2 /Oi /Ot /Oy /GL /D dSINGLE /D CCD_SINGLE /D WIN32 /D _CRT_SECURE_NO_DEPRECATE /D ODE_LIB /D _MBCS /GF /Gm- /EHsc /MD /GS /Gy /Qpar /arch:AVX /fp:fast /Zc:wchar_t /Zc:forScope /Fo"OBJ\RELEASESINGLELIB\\" /Fd"..\..\LIB\RELEASESINGLELIB\ODE.PDB" /Gd /TP /analyze- C:\GIT\THIRDPARTY\ODE-0.12\ODE\SRC\BOX.CPP
^C:\GIT\THIRDPARTY\ODE-0.12\ODE\SRC\CAPSULE.CPP
/c /I..\..\include /I..\..\ode\src /I..\..\ode\src\joints /I..\..\OPCODE /I..\..\GIMPACT\include /I..\..\ou\include /I..\..\libccd\src /Zi /nologo /W3 /WX- /O2 /Ob2 /Oi /Ot /Oy /GL /D dSINGLE /D CCD_SINGLE /D WIN32 /D _CRT_SECURE_NO_DEPRECATE /D ODE_LIB /D _MBCS /GF /Gm- /EHsc /MD /GS /Gy /Qpar /arch:AVX /fp:fast /Zc:wchar_t /Zc:forScope /Fo"OBJ\RELEASESINGLELIB\\" /Fd"..\..\LIB\RELEASESINGLELIB\ODE.PDB" /Gd /TP /analyze- C:\GIT\THIRDPARTY\ODE-0.12\ODE\SRC\CAPSULE.CPP
^C:\GIT\THIRDPARTY\ODE-0.12\ODE\SRC\COLLISION_CYLINDER_BOX.CPP
/c /I..\..\include /I..\..\ode\src /I..\..\ode\src\joints /I..\..\OPCODE /I..\..\GIMPACT\include /I..\..\ou\include /I..\..\libccd\src /Zi /nologo /W3 /WX- /O2 /Ob2 /Oi /Ot /Oy /GL /D dSINGLE /D CCD_SINGLE /D WIN32 /D _CRT_SECURE_NO_DEPRECATE /D ODE_LIB /D _MBCS /GF /Gm- /EHsc /MD /GS /Gy /Qpar /arch:AVX /fp:fast /Zc:wchar_t /Zc:forScope /Fo"OBJ\RELEASESINGLELIB\\" /Fd"..\..\LIB\RELEASESINGLELIB\ODE.PDB" /Gd /TP /analyze- C:\GIT\THIRDPARTY\ODE-0.12\ODE\SRC\COLLISION_CYLINDER_BOX.CPP
^C:\GIT\THIRDPARTY\ODE-0.12\ODE\SRC\COLLISION_CYLINDER_PLANE.CPP
/c /I..\..\include /I..\..\ode\src /I..\..\ode\src\joints /I..\..\OPCODE /I..\..\GIMPACT\include /I..\..\ou\include /I..\..\libccd\src /Zi /nologo /W3 /WX- /O2 /Ob2 /Oi /Ot /Oy /GL /D dSINGLE /D CCD_SINGLE /D WIN32 /D _CRT_SECURE_NO_DEPRECATE /D ODE_LIB /D _MBCS /GF /Gm- /EHsc /MD /GS /Gy /Qpar /arch:AVX /fp:fast /Zc:wchar_t /Zc:forScope /Fo"OBJ\RELEASESINGLELIB\\" /Fd"..\..\LIB\RELEASESINGLELIB\ODE.PDB" /Gd /TP /analyze- C:\GIT\THIRDPARTY\ODE-0.12\ODE\SRC\COLLISION_CYLINDER_PLANE.CPP
^C:\GIT\THIRDPARTY\ODE-0.12\ODE\SRC\COLLISION_CYLINDER_SPHERE.CPP
/c /I..\..\include /I..\..\ode\src /I..\..\ode\src\joints /I..\..\OPCODE /I..\..\GIMPACT\include /I..\..\ou\include /I..\..\libccd\src /Zi /nologo /W3 /WX- /O2 /Ob2 /Oi /Ot /Oy /GL /D dSINGLE /D CCD_SINGLE /D WIN32 /D _CRT_SECURE_NO_DEPRECATE /D ODE_LIB /D _MBCS /GF /Gm- /EHsc /MD /GS /Gy /Qpar /arch:AVX /fp:fast /Zc:wchar_t /Zc:forScope /Fo"OBJ\RELEASESINGLELIB\\" /Fd"..\..\LIB\RELEASESINGLELIB\ODE.PDB" /Gd /TP /analyze- C:\GIT\THIRDPARTY\ODE-0.12\ODE\SRC\COLLISION_CYLINDER_SPHERE.CPP
^C:\GIT\THIRDPARTY\ODE-0.12\ODE\SRC\COLLISION_CYLINDER_TRIMESH.CPP
/c /I..\..\include /I..\..\ode\src /I..\..\ode\src\joints /I..\..\OPCODE /I..\..\GIMPACT\include /I..\..\ou\include /I..\..\libccd\src /Zi /nologo /W3 /WX- /O2 /Ob2 /Oi /Ot /Oy /GL /D dSINGLE /D CCD_SINGLE /D WIN32 /D _CRT_SECURE_NO_DEPRECATE /D ODE_LIB /D _MBCS /GF /Gm- /EHsc /MD /GS /Gy /Qpar /arch:AVX /fp:fast /Zc:wchar_t /Zc:forScope /Fo"OBJ\RELEASESINGLELIB\\" /Fd"..\..\LIB\RELEASESINGLELIB\ODE.PDB" /Gd /TP /analyze- C:\GIT\THIRDPARTY\ODE-0.12\ODE\SRC\COLLISION_CYLINDER_TRIMESH.CPP
^C:\GIT\THIRDPARTY\ODE-0.12\ODE\SRC\COLLISION_KERNEL.CPP
/c /I..\..\include /I..\..\ode\src /I..\..\ode\src\joints /I..\..\OPCODE /I..\..\GIMPACT\include /I..\..\ou\include /I..\..\libccd\src /Zi /nologo /W3 /WX- /O2 /Ob2 /Oi /Ot /Oy /GL /D dSINGLE /D CCD_SINGLE /D WIN32 /D _CRT_SECURE_NO_DEPRECATE /D ODE_LIB /D _MBCS /GF /Gm- /EHsc /MD /GS /Gy /Qpar /arch:AVX /fp:fast /Zc:wchar_t /Zc:forScope /Fo"OBJ\RELEASESINGLELIB\\" /Fd"..\..\LIB\RELEASESINGLELIB\ODE.PDB" /Gd /TP /analyze- C:\GIT\THIRDPARTY\ODE-0.12\ODE\SRC\COLLISION_KERNEL.CPP
^C:\GIT\THIRDPARTY\ODE-0.12\ODE\SRC\COLLISION_QUADTREESPACE.CPP
/c /I..\..\include /I..\..\ode\src /I..\..\ode\src\joints /I..\..\OPCODE /I..\..\GIMPACT\include /I..\..\ou\include /I..\..\libccd\src /Zi /nologo /W3 /WX- /O2 /Ob2 /Oi /Ot /Oy /GL /D dSINGLE /D CCD_SINGLE /D WIN32 /D _CRT_SECURE_NO_DEPRECATE /D ODE_LIB /D _MBCS /GF /Gm- /EHsc /MD /GS /Gy /Qpar /arch:AVX /fp:fast /Zc:wchar_t /Zc:forScope /Fo"OBJ\RELEASESINGLELIB\\" /Fd"..\..\LIB\RELEASESINGLELIB\ODE.PDB" /Gd /TP /analyze- C:\GIT\THIRDPARTY\ODE-0.12\ODE\SRC\COLLISION_QUADTREESPACE.CPP
^C:\GIT\THIRDPARTY\ODE-0.12\ODE\SRC\COLLISION_SAPSPACE.CPP
/c /I..\..\include /I..\..\ode\src /I..\..\ode\src\joints /I..\..\OPCODE /I..\..\GIMPACT\include /I..\..\ou\include /I..\..\libccd\src /Zi /nologo /W3 /WX- /O2 /Ob2 /Oi /Ot /Oy /GL /D dSINGLE /D CCD_SINGLE /D WIN32 /D _CRT_SECURE_NO_DEPRECATE /D ODE_LIB /D _MBCS /GF /Gm- /EHsc /MD /GS /Gy /Qpar /arch:AVX /fp:fast /Zc:wchar_t /Zc:forScope /Fo"OBJ\RELEASESINGLELIB\\" /Fd"..\..\LIB\RELEASESINGLELIB\ODE.PDB" /Gd /TP /analyze- C:\GIT\THIRDPARTY\ODE-0.12\ODE\SRC\COLLISION_SAPSPACE.CPP
^C:\GIT\THIRDPARTY\ODE-0.12\ODE\SRC\COLLISION_SPACE.CPP
/c /I..\..\include /I..\..\ode\src /I..\..\ode\src\joints /I..\..\OPCODE /I..\..\GIMPACT\include /I..\..\ou\include /I..\..\libccd\src /Zi /nologo /W3 /WX- /O2 /Ob2 /Oi /Ot /Oy /GL /D dSINGLE /D CCD_SINGLE /D WIN32 /D _CRT_SECURE_NO_DEPRECATE /D ODE_LIB /D _MBCS /GF /Gm- /EHsc /MD /GS /Gy /Qpar /arch:AVX /fp:fast /Zc:wchar_t /Zc:forScope /Fo"OBJ\RELEASESINGLELIB\\" /Fd"..\..\LIB\RELEASESINGLELIB\ODE.PDB" /Gd /TP /analyze- C:\GIT\THIRDPARTY\ODE-0.12\ODE\SRC\COLLISION_SPACE.CPP
^C:\GIT\THIRDPARTY\ODE-0.12\ODE\SRC\COLLISION_TRANSFORM.CPP
/c /I..\..\include /I..\..\ode\src /I..\..\ode\src\joints /I..\..\OPCODE /I..\..\GIMPACT\include /I..\..\ou\include /I..\..\libccd\src /Zi /nologo /W3 /WX- /O2 /Ob2 /Oi /Ot /Oy /GL /D dSINGLE /D CCD_SINGLE /D WIN32 /D _CRT_SECURE_NO_DEPRECATE /D ODE_LIB /D _MBCS /GF /Gm- /EHsc /MD /GS /Gy /Qpar /arch:AVX /fp:fast /Zc:wchar_t /Zc:forScope /Fo"OBJ\RELEASESINGLELIB\\" /Fd"..\..\LIB\RELEASESINGLELIB\ODE.PDB" /Gd /TP /analyze- C:\GIT\THIRDPARTY\ODE-0.12\ODE\SRC\COLLISION_TRANSFORM.CPP
^C:\GIT\THIRDPARTY\ODE-0.12\ODE\SRC\COLLISION_TRIMESH_BOX.CPP
/c /I..\..\include /I..\..\ode\src /I..\..\ode\src\joints /I..\..\OPCODE /I..\..\GIMPACT\include /I..\..\ou\include /I..\..\libccd\src /Zi /nologo /W3 /WX- /O2 /Ob2 /Oi /Ot /Oy /GL /D dSINGLE /D CCD_SINGLE /D WIN32 /D _CRT_SECURE_NO_DEPRECATE /D ODE_LIB /D _MBCS /GF /Gm- /EHsc /MD /GS /Gy /Qpar /arch:AVX /fp:fast /Zc:wchar_t /Zc:forScope /Fo"OBJ\RELEASESINGLELIB\\" /Fd"..\..\LIB\RELEASESINGLELIB\ODE.PDB" /Gd /TP /analyze- C:\GIT\THIRDPARTY\ODE-0.12\ODE\SRC\COLLISION_TRIMESH_BOX.CPP
^C:\GIT\THIRDPARTY\ODE-0.12\ODE\SRC\COLLISION_TRIMESH_CCYLINDER.CPP
/c /I..\..\include /I..\..\ode\src /I..\..\ode\src\joints /I..\..\OPCODE /I..\..\GIMPACT\include /I..\..\ou\include /I..\..\libccd\src /Zi /nologo /W3 /WX- /O2 /Ob2 /Oi /Ot /Oy /GL /D dSINGLE /D CCD_SINGLE /D WIN32 /D _CRT_SECURE_NO_DEPRECATE /D ODE_LIB /D _MBCS /GF /Gm- /EHsc /MD /GS /Gy /Qpar /arch:AVX /fp:fast /Zc:wchar_t /Zc:forScope /Fo"OBJ\RELEASESINGLELIB\\" /Fd"..\..\LIB\RELEASESINGLELIB\ODE.PDB" /Gd /TP /analyze- C:\GIT\THIRDPARTY\ODE-0.12\ODE\SRC\COLLISION_TRIMESH_CCYLINDER.CPP
^C:\GIT\THIRDPARTY\ODE-0.12\ODE\SRC\COLLISION_TRIMESH_DISABLED.CPP
/c /I..\..\include /I..\..\ode\src /I..\..\ode\src\joints /I..\..\OPCODE /I..\..\GIMPACT\include /I..\..\ou\include /I..\..\libccd\src /Zi /nologo /W3 /WX- /O2 /Ob2 /Oi /Ot /Oy /GL /D dSINGLE /D CCD_SINGLE /D WIN32 /D _CRT_SECURE_NO_DEPRECATE /D ODE_LIB /D _MBCS /GF /Gm- /EHsc /MD /GS /Gy /Qpar /arch:AVX /fp:fast /Zc:wchar_t /Zc:forScope /Fo"OBJ\RELEASESINGLELIB\\" /Fd"..\..\LIB\RELEASESINGLELIB\ODE.PDB" /Gd /TP /analyze- C:\GIT\THIRDPARTY\ODE-0.12\ODE\SRC\COLLISION_TRIMESH_DISABLED.CPP
^C:\GIT\THIRDPARTY\ODE-0.12\ODE\SRC\COLLISION_TRIMESH_DISTANCE.CPP
/c /I..\..\include /I..\..\ode\src /I..\..\ode\src\joints /I..\..\OPCODE /I..\..\GIMPACT\include /I..\..\ou\include /I..\..\libccd\src /Zi /nologo /W3 /WX- /O2 /Ob2 /Oi /Ot /Oy /GL /D dSINGLE /D CCD_SINGLE /D WIN32 /D _CRT_SECURE_NO_DEPRECATE /D ODE_LIB /D _MBCS /GF /Gm- /EHsc /MD /GS /Gy /Qpar /arch:AVX /fp:fast /Zc:wchar_t /Zc:forScope /Fo"OBJ\RELEASESINGLELIB\\" /Fd"..\..\LIB\RELEASESINGLELIB\ODE.PDB" /Gd /TP /analyze- C:\GIT\THIRDPARTY\ODE-0.12\ODE\SRC\COLLISION_TRIMESH_DISTANCE.CPP
^C:\GIT\THIRDPARTY\ODE-0.12\ODE\SRC\COLLISION_TRIMESH_GIMPACT.CPP
/c /I..\..\include /I..\..\ode\src /I..\..\ode\src\joints /I..\..\OPCODE /I..\..\GIMPACT\include /I..\..\ou\include /I..\..\libccd\src /Zi /nologo /W3 /WX- /O2 /Ob2 /Oi /Ot /Oy /GL /D dSINGLE /D CCD_SINGLE /D WIN32 /D _CRT_SECURE_NO_DEPRECATE /D ODE_LIB /D _MBCS /GF /Gm- /EHsc /MD /GS /Gy /Qpar /arch:AVX /fp:fast /Zc:wchar_t /Zc:forScope /Fo"OBJ\RELEASESINGLELIB\\" /Fd"..\..\LIB\RELEASESINGLELIB\ODE.PDB" /Gd /TP /analyze- C:\GIT\THIRDPARTY\ODE-0.12\ODE\SRC\COLLISION_TRIMESH_GIMPACT.CPP
^C:\GIT\THIRDPARTY\ODE-0.12\ODE\SRC\COLLISION_TRIMESH_OPCODE.CPP
/c /I..\..\include /I..\..\ode\src /I..\..\ode\src\joints /I..\..\OPCODE /I..\..\GIMPACT\include /I..\..\ou\include /I..\..\libccd\src /Zi /nologo /W3 /WX- /O2 /Ob2 /Oi /Ot /Oy /GL /D dSINGLE /D CCD_SINGLE /D WIN32 /D _CRT_SECURE_NO_DEPRECATE /D ODE_LIB /D _MBCS /GF /Gm- /EHsc /MD /GS /Gy /Qpar /arch:AVX /fp:fast /Zc:wchar_t /Zc:forScope /Fo"OBJ\RELEASESINGLELIB\\" /Fd"..\..\LIB\RELEASESINGLELIB\ODE.PDB" /Gd /TP /analyze- C:\GIT\THIRDPARTY\ODE-0.12\ODE\SRC\COLLISION_TRIMESH_OPCODE.CPP
^C:\GIT\THIRDPARTY\ODE-0.12\ODE\SRC\COLLISION_TRIMESH_PLANE.CPP
/c /I..\..\include /I..\..\ode\src /I..\..\ode\src\joints /I..\..\OPCODE /I..\..\GIMPACT\include /I..\..\ou\include /I..\..\libccd\src /Zi /nologo /W3 /WX- /O2 /Ob2 /Oi /Ot /Oy /GL /D dSINGLE /D CCD_SINGLE /D WIN32 /D _CRT_SECURE_NO_DEPRECATE /D ODE_LIB /D _MBCS /GF /Gm- /EHsc /MD /GS /Gy /Qpar /arch:AVX /fp:fast /Zc:wchar_t /Zc:forScope /Fo"OBJ\RELEASESINGLELIB\\" /Fd"..\..\LIB\RELEASESINGLELIB\ODE.PDB" /Gd /TP /analyze- C:\GIT\THIRDPARTY\ODE-0.12\ODE\SRC\COLLISION_TRIMESH_PLANE.CPP
^C:\GIT\THIRDPARTY\ODE-0.12\ODE\SRC\COLLISION_TRIMESH_RAY.CPP
/c /I..\..\include /I..\..\ode\src /I..\..\ode\src\joints /I..\..\OPCODE /I..\..\GIMPACT\include /I..\..\ou\include /I..\..\libccd\src /Zi /nologo /W3 /WX- /O2 /Ob2 /Oi /Ot /Oy /GL /D dSINGLE /D CCD_SINGLE /D WIN32 /D _CRT_SECURE_NO_DEPRECATE /D ODE_LIB /D _MBCS /GF /Gm- /EHsc /MD /GS /Gy /Qpar /arch:AVX /fp:fast /Zc:wchar_t /Zc:forScope /Fo"OBJ\RELEASESINGLELIB\\" /Fd"..\..\LIB\RELEASESINGLELIB\ODE.PDB" /Gd /TP /analyze- C:\GIT\THIRDPARTY\ODE-0.12\ODE\SRC\COLLISION_TRIMESH_RAY.CPP
^C:\GIT\THIRDPARTY\ODE-0.12\ODE\SRC\COLLISION_TRIMESH_SPHERE.CPP
/c /I..\..\include /I..\..\ode\src /I..\..\ode\src\joints /I..\..\OPCODE /I..\..\GIMPACT\include /I..\..\ou\include /I..\..\libccd\src /Zi /nologo /W3 /WX- /O2 /Ob2 /Oi /Ot /Oy /GL /D dSINGLE /D CCD_SINGLE /D WIN32 /D _CRT_SECURE_NO_DEPRECATE /D ODE_LIB /D _MBCS /GF /Gm- /EHsc /MD /GS /Gy /Qpar /arch:AVX /fp:fast /Zc:wchar_t /Zc:forScope /Fo"OBJ\RELEASESINGLELIB\\" /Fd"..\..\LIB\RELEASESINGLELIB\ODE.PDB" /Gd /TP /analyze- C:\GIT\THIRDPARTY\ODE-0.12\ODE\SRC\COLLISION_TRIMESH_SPHERE.CPP
^C:\GIT\THIRDPARTY\ODE-0.12\ODE\SRC\COLLISION_TRIMESH_TRIMESH.CPP
/c /I..\..\include /I..\..\ode\src /I..\..\ode\src\joints /I..\..\OPCODE /I..\..\GIMPACT\include /I..\..\ou\include /I..\..\libccd\src /Zi /nologo /W3 /WX- /O2 /Ob2 /Oi /Ot /Oy /GL /D dSINGLE /D CCD_SINGLE /D WIN32 /D _CRT_SECURE_NO_DEPRECATE /D ODE_LIB /D _MBCS /GF /Gm- /EHsc /MD /GS /Gy /Qpar /arch:AVX /fp:fast /Zc:wchar_t /Zc:forScope /Fo"OBJ\RELEASESINGLELIB\\" /Fd"..\..\LIB\RELEASESINGLELIB\ODE.PDB" /Gd /TP /analyze- C:\GIT\THIRDPARTY\ODE-0.12\ODE\SRC\COLLISION_TRIMESH_TRIMESH.CPP
^C:\GIT\THIRDPARTY\ODE-0.12\ODE\SRC\COLLISION_TRIMESH_TRIMESH_NEW.CPP
/c /I..\..\include /I..\..\ode\src /I..\..\ode\src\joints /I..\..\OPCODE /I..\..\GIMPACT\include /I..\..\ou\include /I..\..\libccd\src /Zi /nologo /W3 /WX- /O2 /Ob2 /Oi /Ot /Oy /GL /D dSINGLE /D CCD_SINGLE /D WIN32 /D _CRT_SECURE_NO_DEPRECATE /D ODE_LIB /D _MBCS /GF /Gm- /EHsc /MD /GS /Gy /Qpar /arch:AVX /fp:fast /Zc:wchar_t /Zc:forScope /Fo"OBJ\RELEASESINGLELIB\\" /Fd"..\..\LIB\RELEASESINGLELIB\ODE.PDB" /Gd /TP /analyze- C:\GIT\THIRDPARTY\ODE-0.12\ODE\SRC\COLLISION_TRIMESH_TRIMESH_NEW.CPP
^C:\GIT\THIRDPARTY\ODE-0.12\ODE\SRC\COLLISION_UTIL.CPP
/c /I..\..\include /I..\..\ode\src /I..\..\ode\src\joints /I..\..\OPCODE /I..\..\GIMPACT\include /I..\..\ou\include /I..\..\libccd\src /Zi /nologo /W3 /WX- /O2 /Ob2 /Oi /Ot /Oy /GL /D dSINGLE /D CCD_SINGLE /D WIN32 /D _CRT_SECURE_NO_DEPRECATE /D ODE_LIB /D _MBCS /GF /Gm- /EHsc /MD /GS /Gy /Qpar /arch:AVX /fp:fast /Zc:wchar_t /Zc:forScope /Fo"OBJ\RELEASESINGLELIB\\" /Fd"..\..\LIB\RELEASESINGLELIB\ODE.PDB" /Gd /TP /analyze- C:\GIT\THIRDPARTY\ODE-0.12\ODE\SRC\COLLISION_UTIL.CPP
^C:\GIT\THIRDPARTY\ODE-0.12\ODE\SRC\CONVEX.CPP
/c /I..\..\include /I..\..\ode\src /I..\..\ode\src\joints /I..\..\OPCODE /I..\..\GIMPACT\include /I..\..\ou\include /I..\..\libccd\src /Zi /nologo /W3 /WX- /O2 /Ob2 /Oi /Ot /Oy /GL /D dSINGLE /D CCD_SINGLE /D WIN32 /D _CRT_SECURE_NO_DEPRECATE /D ODE_LIB /D _MBCS /GF /Gm- /EHsc /MD /GS /Gy /Qpar /arch:AVX /fp:fast /Zc:wchar_t /Zc:forScope /Fo"OBJ\RELEASESINGLELIB\\" /Fd"..\..\LIB\RELEASESINGLELIB\ODE.PDB" /Gd /TP /analyze- C:\GIT\THIRDPARTY\ODE-0.12\ODE\SRC\CONVEX.CPP
^C:\GIT\THIRDPARTY\ODE-0.12\ODE\SRC\CYLINDER.CPP
/c /I..\..\include /I..\..\ode\src /I..\..\ode\src\joints /I..\..\OPCODE /I..\..\GIMPACT\include /I..\..\ou\include /I..\..\libccd\src /Zi /nologo /W3 /WX- /O2 /Ob2 /Oi /Ot /Oy /GL /D dSINGLE /D CCD_SINGLE /D WIN32 /D _CRT_SECURE_NO_DEPRECATE /D ODE_LIB /D _MBCS /GF /Gm- /EHsc /MD /GS /Gy /Qpar /arch:AVX /fp:fast /Zc:wchar_t /Zc:forScope /Fo"OBJ\RELEASESINGLELIB\\" /Fd"..\..\LIB\RELEASESINGLELIB\ODE.PDB" /Gd /TP /analyze- C:\GIT\THIRDPARTY\ODE-0.12\ODE\SRC\CYLINDER.CPP
^C:\GIT\THIRDPARTY\ODE-0.12\ODE\SRC\ERROR.CPP
/c /I..\..\include /I..\..\ode\src /I..\..\ode\src\joints /I..\..\OPCODE /I..\..\GIMPACT\include /I..\..\ou\include /I..\..\libccd\src /Zi /nologo /W3 /WX- /O2 /Ob2 /Oi /Ot /Oy /GL /D dSINGLE /D CCD_SINGLE /D WIN32 /D _CRT_SECURE_NO_DEPRECATE /D ODE_LIB /D _MBCS /GF /Gm- /EHsc /MD /GS /Gy /Qpar /arch:AVX /fp:fast /Zc:wchar_t /Zc:forScope /Fo"OBJ\RELEASESINGLELIB\\" /Fd"..\..\LIB\RELEASESINGLELIB\ODE.PDB" /Gd /TP /analyze- C:\GIT\THIRDPARTY\ODE-0.12\ODE\SRC\ERROR.CPP
^C:\GIT\THIRDPARTY\ODE-0.12\ODE\SRC\EXPORT-DIF.CPP
/c /I..\..\include /I..\..\ode\src /I..\..\ode\src\joints /I..\..\OPCODE /I..\..\GIMPACT\include /I..\..\ou\include /I..\..\libccd\src /Zi /nologo /W3 /WX- /O2 /Ob2 /Oi /Ot /Oy /GL /D dSINGLE /D CCD_SINGLE /D WIN32 /D _CRT_SECURE_NO_DEPRECATE /D ODE_LIB /D _MBCS /GF /Gm- /EHsc /MD /GS /Gy /Qpar /arch:AVX /fp:fast /Zc:wchar_t /Zc:forScope /Fo"OBJ\RELEASESINGLELIB\\" /Fd"..\..\LIB\RELEASESINGLELIB\ODE.PDB" /Gd /TP /analyze- C:\GIT\THIRDPARTY\ODE-0.12\ODE\SRC\EXPORT-DIF.CPP
^C:\GIT\THIRDPARTY\ODE-0.12\ODE\SRC\HEIGHTFIELD.CPP
/c /I..\..\include /I..\..\ode\src /I..\..\ode\src\joints /I..\..\OPCODE /I..\..\GIMPACT\include /I..\..\ou\include /I..\..\libccd\src /Zi /nologo /W3 /WX- /O2 /Ob2 /Oi /Ot /Oy /GL /D dSINGLE /D CCD_SINGLE /D WIN32 /D _CRT_SECURE_NO_DEPRECATE /D ODE_LIB /D _MBCS /GF /Gm- /EHsc /MD /GS /Gy /Qpar /arch:AVX /fp:fast /Zc:wchar_t /Zc:forScope /Fo"OBJ\RELEASESINGLELIB\\" /Fd"..\..\LIB\RELEASESINGLELIB\ODE.PDB" /Gd /TP /analyze- C:\GIT\THIRDPARTY\ODE-0.12\ODE\SRC\HEIGHTFIELD.CPP
^C:\GIT\THIRDPARTY\ODE-0.12\ODE\SRC\LCP.CPP
/c /I..\..\include /I..\..\ode\src /I..\..\ode\src\joints /I..\..\OPCODE /I..\..\GIMPACT\include /I..\..\ou\include /I..\..\libccd\src /Zi /nologo /W3 /WX- /O2 /Ob2 /Oi /Ot /Oy /GL /D dSINGLE /D CCD_SINGLE /D WIN32 /D _CRT_SECURE_NO_DEPRECATE /D ODE_LIB /D _MBCS /GF /Gm- /EHsc /MD /GS /Gy /Qpar /arch:AVX /fp:fast /Zc:wchar_t /Zc:forScope /Fo"OBJ\RELEASESINGLELIB\\" /Fd"..\..\LIB\RELEASESINGLELIB\ODE.PDB" /Gd /TP /analyze- C:\GIT\THIRDPARTY\ODE-0.12\ODE\SRC\LCP.CPP
^C:\GIT\THIRDPARTY\ODE-0.12\ODE\SRC\MASS.CPP
/c /I..\..\include /I..\..\ode\src /I..\..\ode\src\joints /I..\..\OPCODE /I..\..\GIMPACT\include /I..\..\ou\include /I..\..\libccd\src /Zi /nologo /W3 /WX- /O2 /Ob2 /Oi /Ot /Oy /GL /D dSINGLE /D CCD_SINGLE /D WIN32 /D _CRT_SECURE_NO_DEPRECATE /D ODE_LIB /D _MBCS /GF /Gm- /EHsc /MD /GS /Gy /Qpar /arch:AVX /fp:fast /Zc:wchar_t /Zc:forScope /Fo"OBJ\RELEASESINGLELIB\\" /Fd"..\..\LIB\RELEASESINGLELIB\ODE.PDB" /Gd /TP /analyze- C:\GIT\THIRDPARTY\ODE-0.12\ODE\SRC\MASS.CPP
^C:\GIT\THIRDPARTY\ODE-0.12\ODE\SRC\MAT.CPP
/c /I..\..\include /I..\..\ode\src /I..\..\ode\src\joints /I..\..\OPCODE /I..\..\GIMPACT\include /I..\..\ou\include /I..\..\libccd\src /Zi /nologo /W3 /WX- /O2 /Ob2 /Oi /Ot /Oy /GL /D dSINGLE /D CCD_SINGLE /D WIN32 /D _CRT_SECURE_NO_DEPRECATE /D ODE_LIB /D _MBCS /GF /Gm- /EHsc /MD /GS /Gy /Qpar /arch:AVX /fp:fast /Zc:wchar_t /Zc:forScope /Fo"OBJ\RELEASESINGLELIB\\" /Fd"..\..\LIB\RELEASESINGLELIB\ODE.PDB" /Gd /TP /analyze- C:\GIT\THIRDPARTY\ODE-0.12\ODE\SRC\MAT.CPP
^C:\GIT\THIRDPARTY\ODE-0.12\ODE\SRC\MATRIX.CPP
/c /I..\..\include /I..\..\ode\src /I..\..\ode\src\joints /I..\..\OPCODE /I..\..\GIMPACT\include /I..\..\ou\include /I..\..\libccd\src /Zi /nologo /W3 /WX- /O2 /Ob2 /Oi /Ot /Oy /GL /D dSINGLE /D CCD_SINGLE /D WIN32 /D _CRT_SECURE_NO_DEPRECATE /D ODE_LIB /D _MBCS /GF /Gm- /EHsc /MD /GS /Gy /Qpar /arch:AVX /fp:fast /Zc:wchar_t /Zc:forScope /Fo"OBJ\RELEASESINGLELIB\\" /Fd"..\..\LIB\RELEASESINGLELIB\ODE.PDB" /Gd /TP /analyze- C:\GIT\THIRDPARTY\ODE-0.12\ODE\SRC\MATRIX.CPP
^C:\GIT\THIRDPARTY\ODE-0.12\ODE\SRC\MEMORY.CPP
/c /I..\..\include /I..\..\ode\src /I..\..\ode\src\joints /I..\..\OPCODE /I..\..\GIMPACT\include /I..\..\ou\include /I..\..\libccd\src /Zi /nologo /W3 /WX- /O2 /Ob2 /Oi /Ot /Oy /GL /D dSINGLE /D CCD_SINGLE /D WIN32 /D _CRT_SECURE_NO_DEPRECATE /D ODE_LIB /D _MBCS /GF /Gm- /EHsc /MD /GS /Gy /Qpar /arch:AVX /fp:fast /Zc:wchar_t /Zc:forScope /Fo"OBJ\RELEASESINGLELIB\\" /Fd"..\..\LIB\RELEASESINGLELIB\ODE.PDB" /Gd /TP /analyze- C:\GIT\THIRDPARTY\ODE-0.12\ODE\SRC\MEMORY.CPP
^C:\GIT\THIRDPARTY\ODE-0.12\ODE\SRC\MISC.CPP
/c /I..\..\include /I..\..\ode\src /I..\..\ode\src\joints /I..\..\OPCODE /I..\..\GIMPACT\include /I..\..\ou\include /I..\..\libccd\src /Zi /nologo /W3 /WX- /O2 /Ob2 /Oi /Ot /Oy /GL /D dSINGLE /D CCD_SINGLE /D WIN32 /D _CRT_SECURE_NO_DEPRECATE /D ODE_LIB /D _MBCS /GF /Gm- /EHsc /MD /GS /Gy /Qpar /arch:AVX /fp:fast /Zc:wchar_t /Zc:forScope /Fo"OBJ\RELEASESINGLELIB\\" /Fd"..\..\LIB\RELEASESINGLELIB\ODE.PDB" /Gd /TP /analyze- C:\GIT\THIRDPARTY\ODE-0.12\ODE\SRC\MISC.CPP
^C:\GIT\THIRDPARTY\ODE-0.12\ODE\SRC\OBSTACK.CPP
/c /I..\..\include /I..\..\ode\src /I..\..\ode\src\joints /I..\..\OPCODE /I..\..\GIMPACT\include /I..\..\ou\include /I..\..\libccd\src /Zi /nologo /W3 /WX- /O2 /Ob2 /Oi /Ot /Oy /GL /D dSINGLE /D CCD_SINGLE /D WIN32 /D _CRT_SECURE_NO_DEPRECATE /D ODE_LIB /D _MBCS /GF /Gm- /EHsc /MD /GS /Gy /Qpar /arch:AVX /fp:fast /Zc:wchar_t /Zc:forScope /Fo"OBJ\RELEASESINGLELIB\\" /Fd"..\..\LIB\RELEASESINGLELIB\ODE.PDB" /Gd /TP /analyze- C:\GIT\THIRDPARTY\ODE-0.12\ODE\SRC\OBSTACK.CPP
^C:\GIT\THIRDPARTY\ODE-0.12\ODE\SRC\ODE.CPP
/c /I..\..\include /I..\..\ode\src /I..\..\ode\src\joints /I..\..\OPCODE /I..\..\GIMPACT\include /I..\..\ou\include /I..\..\libccd\src /Zi /nologo /W3 /WX- /O2 /Ob2 /Oi /Ot /Oy /GL /D dSINGLE /D CCD_SINGLE /D WIN32 /D _CRT_SECURE_NO_DEPRECATE /D ODE_LIB /D _MBCS /GF /Gm- /EHsc /MD /GS /Gy /Qpar /arch:AVX /fp:fast /Zc:wchar_t /Zc:forScope /Fo"OBJ\RELEASESINGLELIB\\" /Fd"..\..\LIB\RELEASESINGLELIB\ODE.PDB" /Gd /TP /analyze- C:\GIT\THIRDPARTY\ODE-0.12\ODE\SRC\ODE.CPP
^C:\GIT\THIRDPARTY\ODE-0.12\ODE\SRC\ODEINIT.CPP
/c /I..\..\include /I..\..\ode\src /I..\..\ode\src\joints /I..\..\OPCODE /I..\..\GIMPACT\include /I..\..\ou\include /I..\..\libccd\src /Zi /nologo /W3 /WX- /O2 /Ob2 /Oi /Ot /Oy /GL /D dSINGLE /D CCD_SINGLE /D WIN32 /D _CRT_SECURE_NO_DEPRECATE /D ODE_LIB /D _MBCS /GF /Gm- /EHsc /MD /GS /Gy /Qpar /arch:AVX /fp:fast /Zc:wchar_t /Zc:forScope /Fo"OBJ\RELEASESINGLELIB\\" /Fd"..\..\LIB\RELEASESINGLELIB\ODE.PDB" /Gd /TP /analyze- C:\GIT\THIRDPARTY\ODE-0.12\ODE\SRC\ODEINIT.CPP
^C:\GIT\THIRDPARTY\ODE-0.12\ODE\SRC\ODEMATH.CPP
/c /I..\..\include /I..\..\ode\src /I..\..\ode\src\joints /I..\..\OPCODE /I..\..\GIMPACT\include /I..\..\ou\include /I..\..\libccd\src /Zi /nologo /W3 /WX- /O2 /Ob2 /Oi /Ot /Oy /GL /D dSINGLE /D CCD_SINGLE /D WIN32 /D _CRT_SECURE_NO_DEPRECATE /D ODE_LIB /D _MBCS /GF /Gm- /EHsc /MD /GS /Gy /Qpar /arch:AVX /fp:fast /Zc:wchar_t /Zc:forScope /Fo"OBJ\RELEASESINGLELIB\\" /Fd"..\..\LIB\RELEASESINGLELIB\ODE.PDB" /Gd /TP /analyze- C:\GIT\THIRDPARTY\ODE-0.12\ODE\SRC\ODEMATH.CPP
^C:\GIT\THIRDPARTY\ODE-0.12\ODE\SRC\ODEOU.CPP
/c /I..\..\include /I..\..\ode\src /I..\..\ode\src\joints /I..\..\OPCODE /I..\..\GIMPACT\include /I..\..\ou\include /I..\..\libccd\src /Zi /nologo /W3 /WX- /O2 /Ob2 /Oi /Ot /Oy /GL /D dSINGLE /D CCD_SINGLE /D WIN32 /D _CRT_SECURE_NO_DEPRECATE /D ODE_LIB /D _MBCS /GF /Gm- /EHsc /MD /GS /Gy /Qpar /arch:AVX /fp:fast /Zc:wchar_t /Zc:forScope /Fo"OBJ\RELEASESINGLELIB\\" /Fd"..\..\LIB\RELEASESINGLELIB\ODE.PDB" /Gd /TP /analyze- C:\GIT\THIRDPARTY\ODE-0.12\ODE\SRC\ODEOU.CPP
^C:\GIT\THIRDPARTY\ODE-0.12\ODE\SRC\ODETLS.CPP
/c /I..\..\include /I..\..\ode\src /I..\..\ode\src\joints /I..\..\OPCODE /I..\..\GIMPACT\include /I..\..\ou\include /I..\..\libccd\src /Zi /nologo /W3 /WX- /O2 /Ob2 /Oi /Ot /Oy /GL /D dSINGLE /D CCD_SINGLE /D WIN32 /D _CRT_SECURE_NO_DEPRECATE /D ODE_LIB /D _MBCS /GF /Gm- /EHsc /MD /GS /Gy /Qpar /arch:AVX /fp:fast /Zc:wchar_t /Zc:forScope /Fo"OBJ\RELEASESINGLELIB\\" /Fd"..\..\LIB\RELEASESINGLELIB\ODE.PDB" /Gd /TP /analyze- C:\GIT\THIRDPARTY\ODE-0.12\ODE\SRC\ODETLS.CPP
^C:\GIT\THIRDPARTY\ODE-0.12\ODE\SRC\PLANE.CPP
/c /I..\..\include /I..\..\ode\src /I..\..\ode\src\joints /I..\..\OPCODE /I..\..\GIMPACT\include /I..\..\ou\include /I..\..\libccd\src /Zi /nologo /W3 /WX- /O2 /Ob2 /Oi /Ot /Oy /GL /D dSINGLE /D CCD_SINGLE /D WIN32 /D _CRT_SECURE_NO_DEPRECATE /D ODE_LIB /D _MBCS /GF /Gm- /EHsc /MD /GS /Gy /Qpar /arch:AVX /fp:fast /Zc:wchar_t /Zc:forScope /Fo"OBJ\RELEASESINGLELIB\\" /Fd"..\..\LIB\RELEASESINGLELIB\ODE.PDB" /Gd /TP /analyze- C:\GIT\THIRDPARTY\ODE-0.12\ODE\SRC\PLANE.CPP
^C:\GIT\THIRDPARTY\ODE-0.12\ODE\SRC\QUICKSTEP.CPP
/c /I..\..\include /I..\..\ode\src /I..\..\ode\src\joints /I..\..\OPCODE /I..\..\GIMPACT\include /I..\..\ou\include /I..\..\libccd\src /Zi /nologo /W3 /WX- /O2 /Ob2 /Oi /Ot /Oy /GL /D dSINGLE /D CCD_SINGLE /D WIN32 /D _CRT_SECURE_NO_DEPRECATE /D ODE_LIB /D _MBCS /GF /Gm- /EHsc /MD /GS /Gy /Qpar /arch:AVX /fp:fast /Zc:wchar_t /Zc:forScope /Fo"OBJ\RELEASESINGLELIB\\" /Fd"..\..\LIB\RELEASESINGLELIB\ODE.PDB" /Gd /TP /analyze- C:\GIT\THIRDPARTY\ODE-0.12\ODE\SRC\QUICKSTEP.CPP
^C:\GIT\THIRDPARTY\ODE-0.12\ODE\SRC\RAY.CPP
/c /I..\..\include /I..\..\ode\src /I..\..\ode\src\joints /I..\..\OPCODE /I..\..\GIMPACT\include /I..\..\ou\include /I..\..\libccd\src /Zi /nologo /W3 /WX- /O2 /Ob2 /Oi /Ot /Oy /GL /D dSINGLE /D CCD_SINGLE /D WIN32 /D _CRT_SECURE_NO_DEPRECATE /D ODE_LIB /D _MBCS /GF /Gm- /EHsc /MD /GS /Gy /Qpar /arch:AVX /fp:fast /Zc:wchar_t /Zc:forScope /Fo"OBJ\RELEASESINGLELIB\\" /Fd"..\..\LIB\RELEASESINGLELIB\ODE.PDB" /Gd /TP /analyze- C:\GIT\THIRDPARTY\ODE-0.12\ODE\SRC\RAY.CPP
^C:\GIT\THIRDPARTY\ODE-0.12\ODE\SRC\ROTATION.CPP
/c /I..\..\include /I..\..\ode\src /I..\..\ode\src\joints /I..\..\OPCODE /I..\..\GIMPACT\include /I..\..\ou\include /I..\..\libccd\src /Zi /nologo /W3 /WX- /O2 /Ob2 /Oi /Ot /Oy /GL /D dSINGLE /D CCD_SINGLE /D WIN32 /D _CRT_SECURE_NO_DEPRECATE /D ODE_LIB /D _MBCS /GF /Gm- /EHsc /MD /GS /Gy /Qpar /arch:AVX /fp:fast /Zc:wchar_t /Zc:forScope /Fo"OBJ\RELEASESINGLELIB\\" /Fd"..\..\LIB\RELEASESINGLELIB\ODE.PDB" /Gd /TP /analyze- C:\GIT\THIRDPARTY\ODE-0.12\ODE\SRC\ROTATION.CPP
^C:\GIT\THIRDPARTY\ODE-0.12\ODE\SRC\SPHERE.CPP
/c /I..\..\include /I..\..\ode\src /I..\..\ode\src\joints /I..\..\OPCODE /I..\..\GIMPACT\include /I..\..\ou\include /I..\..\libccd\src /Zi /nologo /W3 /WX- /O2 /Ob2 /Oi /Ot /Oy /GL /D dSINGLE /D CCD_SINGLE /D WIN32 /D _CRT_SECURE_NO_DEPRECATE /D ODE_LIB /D _MBCS /GF /Gm- /EHsc /MD /GS /Gy /Qpar /arch:AVX /fp:fast /Zc:wchar_t /Zc:forScope /Fo"OBJ\RELEASESINGLELIB\\" /Fd"..\..\LIB\RELEASESINGLELIB\ODE.PDB" /Gd /TP /analyze- C:\GIT\THIRDPARTY\ODE-0.12\ODE\SRC\SPHERE.CPP
^C:\GIT\THIRDPARTY\ODE-0.12\ODE\SRC\STEP.CPP
/c /I..\..\include /I..\..\ode\src /I..\..\ode\src\joints /I..\..\OPCODE /I..\..\GIMPACT\include /I..\..\ou\include /I..\..\libccd\src /Zi /nologo /W3 /WX- /O2 /Ob2 /Oi /Ot /Oy /GL /D dSINGLE /D CCD_SINGLE /D WIN32 /D _CRT_SECURE_NO_DEPRECATE /D ODE_LIB /D _MBCS /GF /Gm- /EHsc /MD /GS /Gy /Qpar /arch:AVX /fp:fast /Zc:wchar_t /Zc:forScope /Fo"OBJ\RELEASESINGLELIB\\" /Fd"..\..\LIB\RELEASESINGLELIB\ODE.PDB" /Gd /TP /analyze- C:\GIT\THIRDPARTY\ODE-0.12\ODE\SRC\STEP.CPP
^C:\GIT\THIRDPARTY\ODE-0.12\ODE\SRC\TIMER.CPP
/c /I..\..\include /I..\..\ode\src /I..\..\ode\src\joints /I..\..\OPCODE /I..\..\GIMPACT\include /I..\..\ou\include /I..\..\libccd\src /Zi /nologo /W3 /WX- /O2 /Ob2 /Oi /Ot /Oy /GL /D dSINGLE /D CCD_SINGLE /D WIN32 /D _CRT_SECURE_NO_DEPRECATE /D ODE_LIB /D _MBCS /GF /Gm- /EHsc /MD /GS /Gy /Qpar /arch:AVX /fp:fast /Zc:wchar_t /Zc:forScope /Fo"OBJ\RELEASESINGLELIB\\" /Fd"..\..\LIB\RELEASESINGLELIB\ODE.PDB" /Gd /TP /analyze- C:\GIT\THIRDPARTY\ODE-0.12\ODE\SRC\TIMER.CPP
^C:\GIT\THIRDPARTY\ODE-0.12\ODE\SRC\UTIL.CPP
/c /I..\..\include /I..\..\ode\src /I..\..\ode\src\joints /I..\..\OPCODE /I..\..\GIMPACT\include /I..\..\ou\include /I..\..\libccd\src /Zi /nologo /W3 /WX- /O2 /Ob2 /Oi /Ot /Oy /GL /D dSINGLE /D CCD_SINGLE /D WIN32 /D _CRT_SECURE_NO_DEPRECATE /D ODE_LIB /D _MBCS /GF /Gm- /EHsc /MD /GS /Gy /Qpar /arch:AVX /fp:fast /Zc:wchar_t /Zc:forScope /Fo"OBJ\RELEASESINGLELIB\\" /Fd"..\..\LIB\RELEASESINGLELIB\ODE.PDB" /Gd /TP /analyze- C:\GIT\THIRDPARTY\ODE-0.12\ODE\SRC\UTIL.CPP
^C:\GIT\THIRDPARTY\ODE-0.12\OPCODE\ICE\ICEAABB.CPP
/c /I..\..\include /I..\..\ode\src /I..\..\ode\src\joints /I..\..\OPCODE /I..\..\GIMPACT\include /I..\..\ou\include /I..\..\libccd\src /Zi /nologo /W3 /WX- /O2 /Ob2 /Oi /Ot /Oy /GL /D dSINGLE /D CCD_SINGLE /D WIN32 /D _CRT_SECURE_NO_DEPRECATE /D ODE_LIB /D _MBCS /GF /Gm- /EHsc /MD /GS /Gy /Qpar /arch:AVX /fp:fast /Zc:wchar_t /Zc:forScope /Fo"OBJ\RELEASESINGLELIB\\" /Fd"..\..\LIB\RELEASESINGLELIB\ODE.PDB" /Gd /TP /analyze- C:\GIT\THIRDPARTY\ODE-0.12\OPCODE\ICE\ICEAABB.CPP
^C:\GIT\THIRDPARTY\ODE-0.12\OPCODE\ICE\ICECONTAINER.CPP
/c /I..\..\include /I..\..\ode\src /I..\..\ode\src\joints /I..\..\OPCODE /I..\..\GIMPACT\include /I..\..\ou\include /I..\..\libccd\src /Zi /nologo /W3 /WX- /O2 /Ob2 /Oi /Ot /Oy /GL /D dSINGLE /D CCD_SINGLE /D WIN32 /D _CRT_SECURE_NO_DEPRECATE /D ODE_LIB /D _MBCS /GF /Gm- /EHsc /MD /GS /Gy /Qpar /arch:AVX /fp:fast /Zc:wchar_t /Zc:forScope /Fo"OBJ\RELEASESINGLELIB\\" /Fd"..\..\LIB\RELEASESINGLELIB\ODE.PDB" /Gd /TP /analyze- C:\GIT\THIRDPARTY\ODE-0.12\OPCODE\ICE\ICECONTAINER.CPP
^C:\GIT\THIRDPARTY\ODE-0.12\OPCODE\ICE\ICEHPOINT.CPP
/c /I..\..\include /I..\..\ode\src /I..\..\ode\src\joints /I..\..\OPCODE /I..\..\GIMPACT\include /I..\..\ou\include /I..\..\libccd\src /Zi /nologo /W3 /WX- /O2 /Ob2 /Oi /Ot /Oy /GL /D dSINGLE /D CCD_SINGLE /D WIN32 /D _CRT_SECURE_NO_DEPRECATE /D ODE_LIB /D _MBCS /GF /Gm- /EHsc /MD /GS /Gy /Qpar /arch:AVX /fp:fast /Zc:wchar_t /Zc:forScope /Fo"OBJ\RELEASESINGLELIB\\" /Fd"..\..\LIB\RELEASESINGLELIB\ODE.PDB" /Gd /TP /analyze- C:\GIT\THIRDPARTY\ODE-0.12\OPCODE\ICE\ICEHPOINT.CPP
^C:\GIT\THIRDPARTY\ODE-0.12\OPCODE\ICE\ICEINDEXEDTRIANGLE.CPP
/c /I..\..\include /I..\..\ode\src /I..\..\ode\src\joints /I..\..\OPCODE /I..\..\GIMPACT\include /I..\..\ou\include /I..\..\libccd\src /Zi /nologo /W3 /WX- /O2 /Ob2 /Oi /Ot /Oy /GL /D dSINGLE /D CCD_SINGLE /D WIN32 /D _CRT_SECURE_NO_DEPRECATE /D ODE_LIB /D _MBCS /GF /Gm- /EHsc /MD /GS /Gy /Qpar /arch:AVX /fp:fast /Zc:wchar_t /Zc:forScope /Fo"OBJ\RELEASESINGLELIB\\" /Fd"..\..\LIB\RELEASESINGLELIB\ODE.PDB" /Gd /TP /analyze- C:\GIT\THIRDPARTY\ODE-0.12\OPCODE\ICE\ICEINDEXEDTRIANGLE.CPP
^C:\GIT\THIRDPARTY\ODE-0.12\OPCODE\ICE\ICEMATRIX3X3.CPP
/c /I..\..\include /I..\..\ode\src /I..\..\ode\src\joints /I..\..\OPCODE /I..\..\GIMPACT\include /I..\..\ou\include /I..\..\libccd\src /Zi /nologo /W3 /WX- /O2 /Ob2 /Oi /Ot /Oy /GL /D dSINGLE /D CCD_SINGLE /D WIN32 /D _CRT_SECURE_NO_DEPRECATE /D ODE_LIB /D _MBCS /GF /Gm- /EHsc /MD /GS /Gy /Qpar /arch:AVX /fp:fast /Zc:wchar_t /Zc:forScope /Fo"OBJ\RELEASESINGLELIB\\" /Fd"..\..\LIB\RELEASESINGLELIB\ODE.PDB" /Gd /TP /analyze- C:\GIT\THIRDPARTY\ODE-0.12\OPCODE\ICE\ICEMATRIX3X3.CPP
^C:\GIT\THIRDPARTY\ODE-0.12\OPCODE\ICE\ICEMATRIX4X4.CPP
/c /I..\..\include /I..\..\ode\src /I..\..\ode\src\joints /I..\..\OPCODE /I..\..\GIMPACT\include /I..\..\ou\include /I..\..\libccd\src /Zi /nologo /W3 /WX- /O2 /Ob2 /Oi /Ot /Oy /GL /D dSINGLE /D CCD_SINGLE /D WIN32 /D _CRT_SECURE_NO_DEPRECATE /D ODE_LIB /D _MBCS /GF /Gm- /EHsc /MD /GS /Gy /Qpar /arch:AVX /fp:fast /Zc:wchar_t /Zc:forScope /Fo"OBJ\RELEASESINGLELIB\\" /Fd"..\..\LIB\RELEASESINGLELIB\ODE.PDB" /Gd /TP /analyze- C:\GIT\THIRDPARTY\ODE-0.12\OPCODE\ICE\ICEMATRIX4X4.CPP
^C:\GIT\THIRDPARTY\ODE-0.12\OPCODE\ICE\ICEOBB.CPP
/c /I..\..\include /I..\..\ode\src /I..\..\ode\src\joints /I..\..\OPCODE /I..\..\GIMPACT\include /I..\..\ou\include /I..\..\libccd\src /Zi /nologo /W3 /WX- /O2 /Ob2 /Oi /Ot /Oy /GL /D dSINGLE /D CCD_SINGLE /D WIN32 /D _CRT_SECURE_NO_DEPRECATE /D ODE_LIB /D _MBCS /GF /Gm- /EHsc /MD /GS /Gy /Qpar /arch:AVX /fp:fast /Zc:wchar_t /Zc:forScope /Fo"OBJ\RELEASESINGLELIB\\" /Fd"..\..\LIB\RELEASESINGLELIB\ODE.PDB" /Gd /TP /analyze- C:\GIT\THIRDPARTY\ODE-0.12\OPCODE\ICE\ICEOBB.CPP
^C:\GIT\THIRDPARTY\ODE-0.12\OPCODE\ICE\ICEPLANE.CPP
/c /I..\..\include /I..\..\ode\src /I..\..\ode\src\joints /I..\..\OPCODE /I..\..\GIMPACT\include /I..\..\ou\include /I..\..\libccd\src /Zi /nologo /W3 /WX- /O2 /Ob2 /Oi /Ot /Oy /GL /D dSINGLE /D CCD_SINGLE /D WIN32 /D _CRT_SECURE_NO_DEPRECATE /D ODE_LIB /D _MBCS /GF /Gm- /EHsc /MD /GS /Gy /Qpar /arch:AVX /fp:fast /Zc:wchar_t /Zc:forScope /Fo"OBJ\RELEASESINGLELIB\\" /Fd"..\..\LIB\RELEASESINGLELIB\ODE.PDB" /Gd /TP /analyze- C:\GIT\THIRDPARTY\ODE-0.12\OPCODE\ICE\ICEPLANE.CPP
^C:\GIT\THIRDPARTY\ODE-0.12\OPCODE\ICE\ICEPOINT.CPP
/c /I..\..\include /I..\..\ode\src /I..\..\ode\src\joints /I..\..\OPCODE /I..\..\GIMPACT\include /I..\..\ou\include /I..\..\libccd\src /Zi /nologo /W3 /WX- /O2 /Ob2 /Oi /Ot /Oy /GL /D dSINGLE /D CCD_SINGLE /D WIN32 /D _CRT_SECURE_NO_DEPRECATE /D ODE_LIB /D _MBCS /GF /Gm- /EHsc /MD /GS /Gy /Qpar /arch:AVX /fp:fast /Zc:wchar_t /Zc:forScope /Fo"OBJ\RELEASESINGLELIB\\" /Fd"..\..\LIB\RELEASESINGLELIB\ODE.PDB" /Gd /TP /analyze- C:\GIT\THIRDPARTY\ODE-0.12\OPCODE\ICE\ICEPOINT.CPP
^C:\GIT\THIRDPARTY\ODE-0.12\OPCODE\ICE\ICERANDOM.CPP
/c /I..\..\include /I..\..\ode\src /I..\..\ode\src\joints /I..\..\OPCODE /I..\..\GIMPACT\include /I..\..\ou\include /I..\..\libccd\src /Zi /nologo /W3 /WX- /O2 /Ob2 /Oi /Ot /Oy /GL /D dSINGLE /D CCD_SINGLE /D WIN32 /D _CRT_SECURE_NO_DEPRECATE /D ODE_LIB /D _MBCS /GF /Gm- /EHsc /MD /GS /Gy /Qpar /arch:AVX /fp:fast /Zc:wchar_t /Zc:forScope /Fo"OBJ\RELEASESINGLELIB\\" /Fd"..\..\LIB\RELEASESINGLELIB\ODE.PDB" /Gd /TP /analyze- C:\GIT\THIRDPARTY\ODE-0.12\OPCODE\ICE\ICERANDOM.CPP
^C:\GIT\THIRDPARTY\ODE-0.12\OPCODE\ICE\ICERAY.CPP
/c /I..\..\include /I..\..\ode\src /I..\..\ode\src\joints /I..\..\OPCODE /I..\..\GIMPACT\include /I..\..\ou\include /I..\..\libccd\src /Zi /nologo /W3 /WX- /O2 /Ob2 /Oi /Ot /Oy /GL /D dSINGLE /D CCD_SINGLE /D WIN32 /D _CRT_SECURE_NO_DEPRECATE /D ODE_LIB /D _MBCS /GF /Gm- /EHsc /MD /GS /Gy /Qpar /arch:AVX /fp:fast /Zc:wchar_t /Zc:forScope /Fo"OBJ\RELEASESINGLELIB\\" /Fd"..\..\LIB\RELEASESINGLELIB\ODE.PDB" /Gd /TP /analyze- C:\GIT\THIRDPARTY\ODE-0.12\OPCODE\ICE\ICERAY.CPP
^C:\GIT\THIRDPARTY\ODE-0.12\OPCODE\ICE\ICEREVISITEDRADIX.CPP
/c /I..\..\include /I..\..\ode\src /I..\..\ode\src\joints /I..\..\OPCODE /I..\..\GIMPACT\include /I..\..\ou\include /I..\..\libccd\src /Zi /nologo /W3 /WX- /O2 /Ob2 /Oi /Ot /Oy /GL /D dSINGLE /D CCD_SINGLE /D WIN32 /D _CRT_SECURE_NO_DEPRECATE /D ODE_LIB /D _MBCS /GF /Gm- /EHsc /MD /GS /Gy /Qpar /arch:AVX /fp:fast /Zc:wchar_t /Zc:forScope /Fo"OBJ\RELEASESINGLELIB\\" /Fd"..\..\LIB\RELEASESINGLELIB\ODE.PDB" /Gd /TP /analyze- C:\GIT\THIRDPARTY\ODE-0.12\OPCODE\ICE\ICEREVISITEDRADIX.CPP
^C:\GIT\THIRDPARTY\ODE-0.12\OPCODE\ICE\ICESEGMENT.CPP
/c /I..\..\include /I..\..\ode\src /I..\..\ode\src\joints /I..\..\OPCODE /I..\..\GIMPACT\include /I..\..\ou\include /I..\..\libccd\src /Zi /nologo /W3 /WX- /O2 /Ob2 /Oi /Ot /Oy /GL /D dSINGLE /D CCD_SINGLE /D WIN32 /D _CRT_SECURE_NO_DEPRECATE /D ODE_LIB /D _MBCS /GF /Gm- /EHsc /MD /GS /Gy /Qpar /arch:AVX /fp:fast /Zc:wchar_t /Zc:forScope /Fo"OBJ\RELEASESINGLELIB\\" /Fd"..\..\LIB\RELEASESINGLELIB\ODE.PDB" /Gd /TP /analyze- C:\GIT\THIRDPARTY\ODE-0.12\OPCODE\ICE\ICESEGMENT.CPP
^C:\GIT\THIRDPARTY\ODE-0.12\OPCODE\ICE\ICETRIANGLE.CPP
/c /I..\..\include /I..\..\ode\src /I..\..\ode\src\joints /I..\..\OPCODE /I..\..\GIMPACT\include /I..\..\ou\include /I..\..\libccd\src /Zi /nologo /W3 /WX- /O2 /Ob2 /Oi /Ot /Oy /GL /D dSINGLE /D CCD_SINGLE /D WIN32 /D _CRT_SECURE_NO_DEPRECATE /D ODE_LIB /D _MBCS /GF /Gm- /EHsc /MD /GS /Gy /Qpar /arch:AVX /fp:fast /Zc:wchar_t /Zc:forScope /Fo"OBJ\RELEASESINGLELIB\\" /Fd"..\..\LIB\RELEASESINGLELIB\ODE.PDB" /Gd /TP /analyze- C:\GIT\THIRDPARTY\ODE-0.12\OPCODE\ICE\ICETRIANGLE.CPP
^C:\GIT\THIRDPARTY\ODE-0.12\OPCODE\ICE\ICEUTILS.CPP
/c /I..\..\include /I..\..\ode\src /I..\..\ode\src\joints /I..\..\OPCODE /I..\..\GIMPACT\include /I..\..\ou\include /I..\..\libccd\src /Zi /nologo /W3 /WX- /O2 /Ob2 /Oi /Ot /Oy /GL /D dSINGLE /D CCD_SINGLE /D WIN32 /D _CRT_SECURE_NO_DEPRECATE /D ODE_LIB /D _MBCS /GF /Gm- /EHsc /MD /GS /Gy /Qpar /arch:AVX /fp:fast /Zc:wchar_t /Zc:forScope /Fo"OBJ\RELEASESINGLELIB\\" /Fd"..\..\LIB\RELEASESINGLELIB\ODE.PDB" /Gd /TP /analyze- C:\GIT\THIRDPARTY\ODE-0.12\OPCODE\ICE\ICEUTILS.CPP
^C:\GIT\THIRDPARTY\ODE-0.12\OPCODE\OPCODE.CPP
/c /I..\..\include /I..\..\ode\src /I..\..\ode\src\joints /I..\..\OPCODE /I..\..\GIMPACT\include /I..\..\ou\include /I..\..\libccd\src /Zi /nologo /W3 /WX- /O2 /Ob2 /Oi /Ot /Oy /GL /D dSINGLE /D CCD_SINGLE /D WIN32 /D _CRT_SECURE_NO_DEPRECATE /D ODE_LIB /D _MBCS /GF /Gm- /EHsc /MD /GS /Gy /Qpar /arch:AVX /fp:fast /Zc:wchar_t /Zc:forScope /Fo"OBJ\RELEASESINGLELIB\\" /Fd"..\..\LIB\RELEASESINGLELIB\ODE.PDB" /Gd /TP /analyze- C:\GIT\THIRDPARTY\ODE-0.12\OPCODE\OPCODE.CPP
^C:\GIT\THIRDPARTY\ODE-0.12\OPCODE\OPC_AABBCOLLIDER.CPP
/c /I..\..\include /I..\..\ode\src /I..\..\ode\src\joints /I..\..\OPCODE /I..\..\GIMPACT\include /I..\..\ou\include /I..\..\libccd\src /Zi /nologo /W3 /WX- /O2 /Ob2 /Oi /Ot /Oy /GL /D dSINGLE /D CCD_SINGLE /D WIN32 /D _CRT_SECURE_NO_DEPRECATE /D ODE_LIB /D _MBCS /GF /Gm- /EHsc /MD /GS /Gy /Qpar /arch:AVX /fp:fast /Zc:wchar_t /Zc:forScope /Fo"OBJ\RELEASESINGLELIB\\" /Fd"..\..\LIB\RELEASESINGLELIB\ODE.PDB" /Gd /TP /analyze- C:\GIT\THIRDPARTY\ODE-0.12\OPCODE\OPC_AABBCOLLIDER.CPP
^C:\GIT\THIRDPARTY\ODE-0.12\OPCODE\OPC_AABBTREE.CPP
/c /I..\..\include /I..\..\ode\src /I..\..\ode\src\joints /I..\..\OPCODE /I..\..\GIMPACT\include /I..\..\ou\include /I..\..\libccd\src /Zi /nologo /W3 /WX- /O2 /Ob2 /Oi /Ot /Oy /GL /D dSINGLE /D CCD_SINGLE /D WIN32 /D _CRT_SECURE_NO_DEPRECATE /D ODE_LIB /D _MBCS /GF /Gm- /EHsc /MD /GS /Gy /Qpar /arch:AVX /fp:fast /Zc:wchar_t /Zc:forScope /Fo"OBJ\RELEASESINGLELIB\\" /Fd"..\..\LIB\RELEASESINGLELIB\ODE.PDB" /Gd /TP /analyze- C:\GIT\THIRDPARTY\ODE-0.12\OPCODE\OPC_AABBTREE.CPP
^C:\GIT\THIRDPARTY\ODE-0.12\OPCODE\OPC_BASEMODEL.CPP
/c /I..\..\include /I..\..\ode\src /I..\..\ode\src\joints /I..\..\OPCODE /I..\..\GIMPACT\include /I..\..\ou\include /I..\..\libccd\src /Zi /nologo /W3 /WX- /O2 /Ob2 /Oi /Ot /Oy /GL /D dSINGLE /D CCD_SINGLE /D WIN32 /D _CRT_SECURE_NO_DEPRECATE /D ODE_LIB /D _MBCS /GF /Gm- /EHsc /MD /GS /Gy /Qpar /arch:AVX /fp:fast /Zc:wchar_t /Zc:forScope /Fo"OBJ\RELEASESINGLELIB\\" /Fd"..\..\LIB\RELEASESINGLELIB\ODE.PDB" /Gd /TP /analyze- C:\GIT\THIRDPARTY\ODE-0.12\OPCODE\OPC_BASEMODEL.CPP
^C:\GIT\THIRDPARTY\ODE-0.12\OPCODE\OPC_COLLIDER.CPP
/c /I..\..\include /I..\..\ode\src /I..\..\ode\src\joints /I..\..\OPCODE /I..\..\GIMPACT\include /I..\..\ou\include /I..\..\libccd\src /Zi /nologo /W3 /WX- /O2 /Ob2 /Oi /Ot /Oy /GL /D dSINGLE /D CCD_SINGLE /D WIN32 /D _CRT_SECURE_NO_DEPRECATE /D ODE_LIB /D _MBCS /GF /Gm- /EHsc /MD /GS /Gy /Qpar /arch:AVX /fp:fast /Zc:wchar_t /Zc:forScope /Fo"OBJ\RELEASESINGLELIB\\" /Fd"..\..\LIB\RELEASESINGLELIB\ODE.PDB" /Gd /TP /analyze- C:\GIT\THIRDPARTY\ODE-0.12\OPCODE\OPC_COLLIDER.CPP
^C:\GIT\THIRDPARTY\ODE-0.12\OPCODE\OPC_COMMON.CPP
/c /I..\..\include /I..\..\ode\src /I..\..\ode\src\joints /I..\..\OPCODE /I..\..\GIMPACT\include /I..\..\ou\include /I..\..\libccd\src /Zi /nologo /W3 /WX- /O2 /Ob2 /Oi /Ot /Oy /GL /D dSINGLE /D CCD_SINGLE /D WIN32 /D _CRT_SECURE_NO_DEPRECATE /D ODE_LIB /D _MBCS /GF /Gm- /EHsc /MD /GS /Gy /Qpar /arch:AVX /fp:fast /Zc:wchar_t /Zc:forScope /Fo"OBJ\RELEASESINGLELIB\\" /Fd"..\..\LIB\RELEASESINGLELIB\ODE.PDB" /Gd /TP /analyze- C:\GIT\THIRDPARTY\ODE-0.12\OPCODE\OPC_COMMON.CPP
^C:\GIT\THIRDPARTY\ODE-0.12\OPCODE\OPC_HYBRIDMODEL.CPP
/c /I..\..\include /I..\..\ode\src /I..\..\ode\src\joints /I..\..\OPCODE /I..\..\GIMPACT\include /I..\..\ou\include /I..\..\libccd\src /Zi /nologo /W3 /WX- /O2 /Ob2 /Oi /Ot /Oy /GL /D dSINGLE /D CCD_SINGLE /D WIN32 /D _CRT_SECURE_NO_DEPRECATE /D ODE_LIB /D _MBCS /GF /Gm- /EHsc /MD /GS /Gy /Qpar /arch:AVX /fp:fast /Zc:wchar_t /Zc:forScope /Fo"OBJ\RELEASESINGLELIB\\" /Fd"..\..\LIB\RELEASESINGLELIB\ODE.PDB" /Gd /TP /analyze- C:\GIT\THIRDPARTY\ODE-0.12\OPCODE\OPC_HYBRIDMODEL.CPP
^C:\GIT\THIRDPARTY\ODE-0.12\OPCODE\OPC_LSSCOLLIDER.CPP
/c /I..\..\include /I..\..\ode\src /I..\..\ode\src\joints /I..\..\OPCODE /I..\..\GIMPACT\include /I..\..\ou\include /I..\..\libccd\src /Zi /nologo /W3 /WX- /O2 /Ob2 /Oi /Ot /Oy /GL /D dSINGLE /D CCD_SINGLE /D WIN32 /D _CRT_SECURE_NO_DEPRECATE /D ODE_LIB /D _MBCS /GF /Gm- /EHsc /MD /GS /Gy /Qpar /arch:AVX /fp:fast /Zc:wchar_t /Zc:forScope /Fo"OBJ\RELEASESINGLELIB\\" /Fd"..\..\LIB\RELEASESINGLELIB\ODE.PDB" /Gd /TP /analyze- C:\GIT\THIRDPARTY\ODE-0.12\OPCODE\OPC_LSSCOLLIDER.CPP
^C:\GIT\THIRDPARTY\ODE-0.12\OPCODE\OPC_MESHINTERFACE.CPP
/c /I..\..\include /I..\..\ode\src /I..\..\ode\src\joints /I..\..\OPCODE /I..\..\GIMPACT\include /I..\..\ou\include /I..\..\libccd\src /Zi /nologo /W3 /WX- /O2 /Ob2 /Oi /Ot /Oy /GL /D dSINGLE /D CCD_SINGLE /D WIN32 /D _CRT_SECURE_NO_DEPRECATE /D ODE_LIB /D _MBCS /GF /Gm- /EHsc /MD /GS /Gy /Qpar /arch:AVX /fp:fast /Zc:wchar_t /Zc:forScope /Fo"OBJ\RELEASESINGLELIB\\" /Fd"..\..\LIB\RELEASESINGLELIB\ODE.PDB" /Gd /TP /analyze- C:\GIT\THIRDPARTY\ODE-0.12\OPCODE\OPC_MESHINTERFACE.CPP
^C:\GIT\THIRDPARTY\ODE-0.12\OPCODE\OPC_MODEL.CPP
/c /I..\..\include /I..\..\ode\src /I..\..\ode\src\joints /I..\..\OPCODE /I..\..\GIMPACT\include /I..\..\ou\include /I..\..\libccd\src /Zi /nologo /W3 /WX- /O2 /Ob2 /Oi /Ot /Oy /GL /D dSINGLE /D CCD_SINGLE /D WIN32 /D _CRT_SECURE_NO_DEPRECATE /D ODE_LIB /D _MBCS /GF /Gm- /EHsc /MD /GS /Gy /Qpar /arch:AVX /fp:fast /Zc:wchar_t /Zc:forScope /Fo"OBJ\RELEASESINGLELIB\\" /Fd"..\..\LIB\RELEASESINGLELIB\ODE.PDB" /Gd /TP /analyze- C:\GIT\THIRDPARTY\ODE-0.12\OPCODE\OPC_MODEL.CPP
^C:\GIT\THIRDPARTY\ODE-0.12\OPCODE\OPC_OBBCOLLIDER.CPP
/c /I..\..\include /I..\..\ode\src /I..\..\ode\src\joints /I..\..\OPCODE /I..\..\GIMPACT\include /I..\..\ou\include /I..\..\libccd\src /Zi /nologo /W3 /WX- /O2 /Ob2 /Oi /Ot /Oy /GL /D dSINGLE /D CCD_SINGLE /D WIN32 /D _CRT_SECURE_NO_DEPRECATE /D ODE_LIB /D _MBCS /GF /Gm- /EHsc /MD /GS /Gy /Qpar /arch:AVX /fp:fast /Zc:wchar_t /Zc:forScope /Fo"OBJ\RELEASESINGLELIB\\" /Fd"..\..\LIB\RELEASESINGLELIB\ODE.PDB" /Gd /TP /analyze- C:\GIT\THIRDPARTY\ODE-0.12\OPCODE\OPC_OBBCOLLIDER.CPP
^C:\GIT\THIRDPARTY\ODE-0.12\OPCODE\OPC_OPTIMIZEDTREE.CPP
/c /I..\..\include /I..\..\ode\src /I..\..\ode\src\joints /I..\..\OPCODE /I..\..\GIMPACT\include /I..\..\ou\include /I..\..\libccd\src /Zi /nologo /W3 /WX- /O2 /Ob2 /Oi /Ot /Oy /GL /D dSINGLE /D CCD_SINGLE /D WIN32 /D _CRT_SECURE_NO_DEPRECATE /D ODE_LIB /D _MBCS /GF /Gm- /EHsc /MD /GS /Gy /Qpar /arch:AVX /fp:fast /Zc:wchar_t /Zc:forScope /Fo"OBJ\RELEASESINGLELIB\\" /Fd"..\..\LIB\RELEASESINGLELIB\ODE.PDB" /Gd /TP /analyze- C:\GIT\THIRDPARTY\ODE-0.12\OPCODE\OPC_OPTIMIZEDTREE.CPP
^C:\GIT\THIRDPARTY\ODE-0.12\OPCODE\OPC_PICKING.CPP
/c /I..\..\include /I..\..\ode\src /I..\..\ode\src\joints /I..\..\OPCODE /I..\..\GIMPACT\include /I..\..\ou\include /I..\..\libccd\src /Zi /nologo /W3 /WX- /O2 /Ob2 /Oi /Ot /Oy /GL /D dSINGLE /D CCD_SINGLE /D WIN32 /D _CRT_SECURE_NO_DEPRECATE /D ODE_LIB /D _MBCS /GF /Gm- /EHsc /MD /GS /Gy /Qpar /arch:AVX /fp:fast /Zc:wchar_t /Zc:forScope /Fo"OBJ\RELEASESINGLELIB\\" /Fd"..\..\LIB\RELEASESINGLELIB\ODE.PDB" /Gd /TP /analyze- C:\GIT\THIRDPARTY\ODE-0.12\OPCODE\OPC_PICKING.CPP
^C:\GIT\THIRDPARTY\ODE-0.12\OPCODE\OPC_PLANESCOLLIDER.CPP
/c /I..\..\include /I..\..\ode\src /I..\..\ode\src\joints /I..\..\OPCODE /I..\..\GIMPACT\include /I..\..\ou\include /I..\..\libccd\src /Zi /nologo /W3 /WX- /O2 /Ob2 /Oi /Ot /Oy /GL /D dSINGLE /D CCD_SINGLE /D WIN32 /D _CRT_SECURE_NO_DEPRECATE /D ODE_LIB /D _MBCS /GF /Gm- /EHsc /MD /GS /Gy /Qpar /arch:AVX /fp:fast /Zc:wchar_t /Zc:forScope /Fo"OBJ\RELEASESINGLELIB\\" /Fd"..\..\LIB\RELEASESINGLELIB\ODE.PDB" /Gd /TP /analyze- C:\GIT\THIRDPARTY\ODE-0.12\OPCODE\OPC_PLANESCOLLIDER.CPP
^C:\GIT\THIRDPARTY\ODE-0.12\OPCODE\OPC_RAYCOLLIDER.CPP
/c /I..\..\include /I..\..\ode\src /I..\..\ode\src\joints /I..\..\OPCODE /I..\..\GIMPACT\include /I..\..\ou\include /I..\..\libccd\src /Zi /nologo /W3 /WX- /O2 /Ob2 /Oi /Ot /Oy /GL /D dSINGLE /D CCD_SINGLE /D WIN32 /D _CRT_SECURE_NO_DEPRECATE /D ODE_LIB /D _MBCS /GF /Gm- /EHsc /MD /GS /Gy /Qpar /arch:AVX /fp:fast /Zc:wchar_t /Zc:forScope /Fo"OBJ\RELEASESINGLELIB\\" /Fd"..\..\LIB\RELEASESINGLELIB\ODE.PDB" /Gd /TP /analyze- C:\GIT\THIRDPARTY\ODE-0.12\OPCODE\OPC_RAYCOLLIDER.CPP
^C:\GIT\THIRDPARTY\ODE-0.12\OPCODE\OPC_SPHERECOLLIDER.CPP
/c /I..\..\include /I..\..\ode\src /I..\..\ode\src\joints /I..\..\OPCODE /I..\..\GIMPACT\include /I..\..\ou\include /I..\..\libccd\src /Zi /nologo /W3 /WX- /O2 /Ob2 /Oi /Ot /Oy /GL /D dSINGLE /D CCD_SINGLE /D WIN32 /D _CRT_SECURE_NO_DEPRECATE /D ODE_LIB /D _MBCS /GF /Gm- /EHsc /MD /GS /Gy /Qpar /arch:AVX /fp:fast /Zc:wchar_t /Zc:forScope /Fo"OBJ\RELEASESINGLELIB\\" /Fd"..\..\LIB\RELEASESINGLELIB\ODE.PDB" /Gd /TP /analyze- C:\GIT\THIRDPARTY\ODE-0.12\OPCODE\OPC_SPHERECOLLIDER.CPP
^C:\GIT\THIRDPARTY\ODE-0.12\OPCODE\OPC_TREEBUILDERS.CPP
/c /I..\..\include /I..\..\ode\src /I..\..\ode\src\joints /I..\..\OPCODE /I..\..\GIMPACT\include /I..\..\ou\include /I..\..\libccd\src /Zi /nologo /W3 /WX- /O2 /Ob2 /Oi /Ot /Oy /GL /D dSINGLE /D CCD_SINGLE /D WIN32 /D _CRT_SECURE_NO_DEPRECATE /D ODE_LIB /D _MBCS /GF /Gm- /EHsc /MD /GS /Gy /Qpar /arch:AVX /fp:fast /Zc:wchar_t /Zc:forScope /Fo"OBJ\RELEASESINGLELIB\\" /Fd"..\..\LIB\RELEASESINGLELIB\ODE.PDB" /Gd /TP /analyze- C:\GIT\THIRDPARTY\ODE-0.12\OPCODE\OPC_TREEBUILDERS.CPP
^C:\GIT\THIRDPARTY\ODE-0.12\OPCODE\OPC_TREECOLLIDER.CPP
/c /I..\..\include /I..\..\ode\src /I..\..\ode\src\joints /I..\..\OPCODE /I..\..\GIMPACT\include /I..\..\ou\include /I..\..\libccd\src /Zi /nologo /W3 /WX- /O2 /Ob2 /Oi /Ot /Oy /GL /D dSINGLE /D CCD_SINGLE /D WIN32 /D _CRT_SECURE_NO_DEPRECATE /D ODE_LIB /D _MBCS /GF /Gm- /EHsc /MD /GS /Gy /Qpar /arch:AVX /fp:fast /Zc:wchar_t /Zc:forScope /Fo"OBJ\RELEASESINGLELIB\\" /Fd"..\..\LIB\RELEASESINGLELIB\ODE.PDB" /Gd /TP /analyze- C:\GIT\THIRDPARTY\ODE-0.12\OPCODE\OPC_TREECOLLIDER.CPP
^C:\GIT\THIRDPARTY\ODE-0.12\OPCODE\OPC_VOLUMECOLLIDER.CPP
/c /I..\..\include /I..\..\ode\src /I..\..\ode\src\joints /I..\..\OPCODE /I..\..\GIMPACT\include /I..\..\ou\include /I..\..\libccd\src /Zi /nologo /W3 /WX- /O2 /Ob2 /Oi /Ot /Oy /GL /D dSINGLE /D CCD_SINGLE /D WIN32 /D _CRT_SECURE_NO_DEPRECATE /D ODE_LIB /D _MBCS /GF /Gm- /EHsc /MD /GS /Gy /Qpar /arch:AVX /fp:fast /Zc:wchar_t /Zc:forScope /Fo"OBJ\RELEASESINGLELIB\\" /Fd"..\..\LIB\RELEASESINGLELIB\ODE.PDB" /Gd /TP /analyze- C:\GIT\THIRDPARTY\ODE-0.12\OPCODE\OPC_VOLUMECOLLIDER.CPP
^C:\GIT\THIRDPARTY\ODE-0.12\ODE\SRC\FASTDOT.C
/c /I..\..\include /I..\..\ode\src /I..\..\ode\src\joints /I..\..\OPCODE /I..\..\GIMPACT\include /I..\..\ou\include /I..\..\libccd\src /Zi /nologo /W3 /WX- /O2 /Ob2 /Oi /Ot /Oy /GL /D dSINGLE /D CCD_SINGLE /D WIN32 /D _CRT_SECURE_NO_DEPRECATE /D ODE_LIB /D _MBCS /GF /Gm- /EHsc /MD /GS /Gy /Qpar /arch:AVX /fp:fast /Zc:wchar_t /Zc:forScope /Fo"OBJ\RELEASESINGLELIB\\" /Fd"..\..\LIB\RELEASESINGLELIB\ODE.PDB" /Gd /TC /analyze- C:\GIT\THIRDPARTY\ODE-0.12\ODE\SRC\FASTDOT.C
^C:\GIT\THIRDPARTY\ODE-0.12\ODE\SRC\FASTLDLT.C
/c /I..\..\include /I..\..\ode\src /I..\..\ode\src\joints /I..\..\OPCODE /I..\..\GIMPACT\include /I..\..\ou\include /I..\..\libccd\src /Zi /nologo /W3 /WX- /O2 /Ob2 /Oi /Ot /Oy /GL /D dSINGLE /D CCD_SINGLE /D WIN32 /D _CRT_SECURE_NO_DEPRECATE /D ODE_LIB /D _MBCS /GF /Gm- /EHsc /MD /GS /Gy /Qpar /arch:AVX /fp:fast /Zc:wchar_t /Zc:forScope /Fo"OBJ\RELEASESINGLELIB\\" /Fd"..\..\LIB\RELEASESINGLELIB\ODE.PDB" /Gd /TC /analyze- C:\GIT\THIRDPARTY\ODE-0.12\ODE\SRC\FASTLDLT.C
^C:\GIT\THIRDPARTY\ODE-0.12\ODE\SRC\FASTLSOLVE.C
/c /I..\..\include /I..\..\ode\src /I..\..\ode\src\joints /I..\..\OPCODE /I..\..\GIMPACT\include /I..\..\ou\include /I..\..\libccd\src /Zi /nologo /W3 /WX- /O2 /Ob2 /Oi /Ot /Oy /GL /D dSINGLE /D CCD_SINGLE /D WIN32 /D _CRT_SECURE_NO_DEPRECATE /D ODE_LIB /D _MBCS /GF /Gm- /EHsc /MD /GS /Gy /Qpar /arch:AVX /fp:fast /Zc:wchar_t /Zc:forScope /Fo"OBJ\RELEASESINGLELIB\\" /Fd"..\..\LIB\RELEASESINGLELIB\ODE.PDB" /Gd /TC /analyze- C:\GIT\THIRDPARTY\ODE-0.12\ODE\SRC\FASTLSOLVE.C
^C:\GIT\THIRDPARTY\ODE-0.12\ODE\SRC\FASTLTSOLVE.C
/c /I..\..\include /I..\..\ode\src /I..\..\ode\src\joints /I..\..\OPCODE /I..\..\GIMPACT\include /I..\..\ou\include /I..\..\libccd\src /Zi /nologo /W3 /WX- /O2 /Ob2 /Oi /Ot /Oy /GL /D dSINGLE /D CCD_SINGLE /D WIN32 /D _CRT_SECURE_NO_DEPRECATE /D ODE_LIB /D _MBCS /GF /Gm- /EHsc /MD /GS /Gy /Qpar /arch:AVX /fp:fast /Zc:wchar_t /Zc:forScope /Fo"OBJ\RELEASESINGLELIB\\" /Fd"..\..\LIB\RELEASESINGLELIB\ODE.PDB" /Gd /TC /analyze- C:\GIT\THIRDPARTY\ODE-0.12\ODE\SRC\FASTLTSOLVE.C
^C:\GIT\THIRDPARTY\ODE-0.12\ODE\SRC\NEXTAFTERF.C
/c /I..\..\include /I..\..\ode\src /I..\..\ode\src\joints /I..\..\OPCODE /I..\..\GIMPACT\include /I..\..\ou\include /I..\..\libccd\src /Zi /nologo /W3 /WX- /O2 /Ob2 /Oi /Ot /Oy /GL /D dSINGLE /D CCD_SINGLE /D WIN32 /D _CRT_SECURE_NO_DEPRECATE /D ODE_LIB /D _MBCS /GF /Gm- /EHsc /MD /GS /Gy /Qpar /arch:AVX /fp:fast /Zc:wchar_t /Zc:forScope /Fo"OBJ\RELEASESINGLELIB\\" /Fd"..\..\LIB\RELEASESINGLELIB\ODE.PDB" /Gd /TC /analyze- C:\GIT\THIRDPARTY\ODE-0.12\ODE\SRC\NEXTAFTERF.C
